<svg width="26" height="23" viewBox="0 0 26 23" fill="none" xmlns="http://www.w3.org/2000/svg">
<path d="M25.4209 7.52611L24.0793 1.94222C23.7981 0.792222 22.8015 0 21.6387 0H3.89037C2.74037 0 1.73092 0.805 1.46259 1.94222L0.120923 7.52611C-0.185744 8.82944 0.0953677 10.1583 0.913145 11.2061C1.01537 11.3467 1.15592 11.4489 1.27092 11.5767V20.4444C1.27092 21.85 2.42092 23 3.82648 23H21.7154C23.1209 23 24.2709 21.85 24.2709 20.4444V11.5767C24.3859 11.4617 24.5265 11.3467 24.6287 11.2189C25.4465 10.1711 25.7404 8.82944 25.4209 7.52611ZM21.6004 2.54278L22.942 8.12667C23.0698 8.66333 22.9548 9.2 22.6226 9.62167C22.4437 9.85167 22.0604 10.2222 21.4215 10.2222C20.642 10.2222 19.9648 9.59611 19.8754 8.76556L19.1343 2.55556L21.6004 2.54278ZM14.0487 2.55556H16.5531L17.2431 8.33111C17.307 8.82944 17.1537 9.32778 16.8215 9.69833C16.5404 10.0306 16.1315 10.2222 15.6076 10.2222C14.7515 10.2222 14.0487 9.46833 14.0487 8.54833V2.55556ZM8.28592 8.33111L8.9887 2.55556H11.4931V8.54833C11.4931 9.46833 10.7904 10.2222 9.84481 10.2222C9.41037 10.2222 9.01426 10.0306 8.70759 9.69833C8.38815 9.32778 8.23481 8.82944 8.28592 8.33111ZM2.59981 8.12667L3.89037 2.55556H6.40759L5.66648 8.76556C5.56426 9.59611 4.89981 10.2222 4.12037 10.2222C3.49426 10.2222 3.09815 9.85167 2.93203 9.62167C2.58703 9.21278 2.47203 8.66333 2.59981 8.12667ZM3.82648 20.4444V12.7394C3.9287 12.7522 4.01815 12.7778 4.12037 12.7778C5.23203 12.7778 6.24148 12.3178 6.98259 11.5639C7.74926 12.3306 8.77148 12.7778 9.93426 12.7778C11.0459 12.7778 12.0426 12.3178 12.7837 11.5894C13.5376 12.3178 14.5598 12.7778 15.7098 12.7778C16.7831 12.7778 17.8054 12.3306 18.572 11.5639C19.3131 12.3178 20.3226 12.7778 21.4343 12.7778C21.5365 12.7778 21.6259 12.7522 21.7281 12.7394V20.4444H3.82648Z" fill="#737B7D"/>
</svg>
