<svg width="39" height="27" viewBox="0 0 39 27" fill="none" xmlns="http://www.w3.org/2000/svg">
<path d="M25.35 0L22.6005 2.71928L31.5315 11.5714H0V15.4286H31.5315L22.581 24.2807L25.35 27L39 13.5L25.35 0Z" fill="white"/>
</svg>
